%YAML 1.1
%TAG !u! tag:unity3d.com,2011:
--- !u!21 &2100000
Material:
  serializedVersion: 8
  m_ObjectHideFlags: 0
  m_CorrespondingSourceObject: {fileID: 0}
  m_PrefabInstance: {fileID: 0}
  m_PrefabAsset: {fileID: 0}
  m_Name: Target
  m_Shader: {fileID: 46, guid: 0000000000000000f000000000000000, type: 0}
  m_Parent: {fileID: 2100000, guid: b74005f1f6fd20c4480c8934a52399ad, type: 2}
  m_ModifiedSerializedProperties: 16
  m_ValidKeywords:
  - _ALPHAPREMULTIPLY_ON
  m_InvalidKeywords: []
  m_LightmapFlags: 4
  m_EnableInstancingVariants: 0
  m_DoubleSidedGI: 0
  m_CustomRenderQueue: 3000
  stringTagMap:
    RenderType: Transparent
  disabledShaderPasses: []
  m_LockedProperties: 
  m_SavedProperties:
    serializedVersion: 3
    m_TexEnvs: []
    m_Ints: []
    m_Floats:
    - _DstBlend: 10
    - _Mode: 3
    - _ZWrite: 0
    m_Colors:
    - _Color: {r: 0.627451, g: 1, b: 0.90150636, a: 0.3764706}
  m_BuildTextureStacks: []
