%YAML 1.1
%TAG !u! tag:unity3d.com,2011:
--- !u!1 &3563433456280184289
GameObject:
  m_ObjectHideFlags: 0
  m_CorrespondingSourceObject: {fileID: 0}
  m_PrefabInstance: {fileID: 0}
  m_PrefabAsset: {fileID: 0}
  serializedVersion: 6
  m_Component:
  - component: {fileID: 3563433456280184290}
  m_Layer: 0
  m_Name: Gear
  m_TagString: Untagged
  m_Icon: {fileID: 0}
  m_NavMeshLayer: 0
  m_StaticEditorFlags: 0
  m_IsActive: 1
--- !u!4 &3563433456280184290
Transform:
  m_ObjectHideFlags: 0
  m_CorrespondingSourceObject: {fileID: 0}
  m_PrefabInstance: {fileID: 0}
  m_PrefabAsset: {fileID: 0}
  m_GameObject: {fileID: 3563433456280184289}
  serializedVersion: 2
  m_LocalRotation: {x: 0, y: 0, z: 0, w: 1}
  m_LocalPosition: {x: 0, y: 0, z: 0}
  m_LocalScale: {x: 10, y: 2, z: 10}
  m_ConstrainProportionsScale: 0
  m_Children:
  - {fileID: 3961305805084287142}
  m_Father: {fileID: 0}
  m_LocalEulerAnglesHint: {x: 0, y: 0, z: 0}
--- !u!1001 &3563433456039921485
PrefabInstance:
  m_ObjectHideFlags: 0
  serializedVersion: 2
  m_Modification:
    serializedVersion: 3
    m_TransformParent: {fileID: 3563433456280184290}
    m_Modifications:
    - target: {fileID: -8679921383154817045, guid: ff11d6bf63037244788a6afc15da6643,
        type: 3}
      propertyPath: m_RootOrder
      value: 0
      objectReference: {fileID: 0}
    - target: {fileID: -8679921383154817045, guid: ff11d6bf63037244788a6afc15da6643,
        type: 3}
      propertyPath: m_LocalScale.x
      value: 1
      objectReference: {fileID: 0}
    - target: {fileID: -8679921383154817045, guid: ff11d6bf63037244788a6afc15da6643,
        type: 3}
      propertyPath: m_LocalScale.y
      value: 1
      objectReference: {fileID: 0}
    - target: {fileID: -8679921383154817045, guid: ff11d6bf63037244788a6afc15da6643,
        type: 3}
      propertyPath: m_LocalScale.z
      value: 1
      objectReference: {fileID: 0}
    - target: {fileID: -8679921383154817045, guid: ff11d6bf63037244788a6afc15da6643,
        type: 3}
      propertyPath: m_LocalPosition.x
      value: 0
      objectReference: {fileID: 0}
    - target: {fileID: -8679921383154817045, guid: ff11d6bf63037244788a6afc15da6643,
        type: 3}
      propertyPath: m_LocalPosition.y
      value: 0
      objectReference: {fileID: 0}
    - target: {fileID: -8679921383154817045, guid: ff11d6bf63037244788a6afc15da6643,
        type: 3}
      propertyPath: m_LocalPosition.z
      value: 0
      objectReference: {fileID: 0}
    - target: {fileID: -8679921383154817045, guid: ff11d6bf63037244788a6afc15da6643,
        type: 3}
      propertyPath: m_LocalRotation.w
      value: 1
      objectReference: {fileID: 0}
    - target: {fileID: -8679921383154817045, guid: ff11d6bf63037244788a6afc15da6643,
        type: 3}
      propertyPath: m_LocalRotation.x
      value: 0
      objectReference: {fileID: 0}
    - target: {fileID: -8679921383154817045, guid: ff11d6bf63037244788a6afc15da6643,
        type: 3}
      propertyPath: m_LocalRotation.y
      value: 0
      objectReference: {fileID: 0}
    - target: {fileID: -8679921383154817045, guid: ff11d6bf63037244788a6afc15da6643,
        type: 3}
      propertyPath: m_LocalRotation.z
      value: 0
      objectReference: {fileID: 0}
    - target: {fileID: -8679921383154817045, guid: ff11d6bf63037244788a6afc15da6643,
        type: 3}
      propertyPath: m_LocalEulerAnglesHint.x
      value: 0
      objectReference: {fileID: 0}
    - target: {fileID: -8679921383154817045, guid: ff11d6bf63037244788a6afc15da6643,
        type: 3}
      propertyPath: m_LocalEulerAnglesHint.y
      value: 0
      objectReference: {fileID: 0}
    - target: {fileID: -8679921383154817045, guid: ff11d6bf63037244788a6afc15da6643,
        type: 3}
      propertyPath: m_LocalEulerAnglesHint.z
      value: 0
      objectReference: {fileID: 0}
    - target: {fileID: -7511558181221131132, guid: ff11d6bf63037244788a6afc15da6643,
        type: 3}
      propertyPath: m_Materials.Array.data[0]
      value: 
      objectReference: {fileID: 2100000, guid: 6159b18e2a608f840a7035db137cd20c, type: 2}
    - target: {fileID: 919132149155446097, guid: ff11d6bf63037244788a6afc15da6643,
        type: 3}
      propertyPath: m_Name
      value: Gear
      objectReference: {fileID: 0}
    m_RemovedComponents: []
    m_RemovedGameObjects: []
    m_AddedGameObjects: []
    m_AddedComponents:
    - targetCorrespondingSourceObject: {fileID: 919132149155446097, guid: ff11d6bf63037244788a6afc15da6643,
        type: 3}
      insertIndex: -1
      addedObject: {fileID: 7151361585406059365}
    - targetCorrespondingSourceObject: {fileID: 919132149155446097, guid: ff11d6bf63037244788a6afc15da6643,
        type: 3}
      insertIndex: -1
      addedObject: {fileID: 2438395531259297687}
  m_SourcePrefab: {fileID: 100100000, guid: ff11d6bf63037244788a6afc15da6643, type: 3}
--- !u!4 &3961305805084287142 stripped
Transform:
  m_CorrespondingSourceObject: {fileID: -8679921383154817045, guid: ff11d6bf63037244788a6afc15da6643,
    type: 3}
  m_PrefabInstance: {fileID: 3563433456039921485}
  m_PrefabAsset: {fileID: 0}
--- !u!1 &4445811533155252764 stripped
GameObject:
  m_CorrespondingSourceObject: {fileID: 919132149155446097, guid: ff11d6bf63037244788a6afc15da6643,
    type: 3}
  m_PrefabInstance: {fileID: 3563433456039921485}
  m_PrefabAsset: {fileID: 0}
--- !u!65 &7151361585406059365
BoxCollider:
  m_ObjectHideFlags: 0
  m_CorrespondingSourceObject: {fileID: 0}
  m_PrefabInstance: {fileID: 0}
  m_PrefabAsset: {fileID: 0}
  m_GameObject: {fileID: 4445811533155252764}
  m_Material: {fileID: 0}
  m_IncludeLayers:
    serializedVersion: 2
    m_Bits: 0
  m_ExcludeLayers:
    serializedVersion: 2
    m_Bits: 0
  m_LayerOverridePriority: 0
  m_IsTrigger: 1
  m_ProvidesContacts: 0
  m_Enabled: 1
  serializedVersion: 3
  m_Size: {x: 0.09390849, y: 0.049250744, z: 0.09136263}
  m_Center: {x: 0.0000000030267984, y: 0.005522206, z: 0.00000011920929}
--- !u!114 &2438395531259297687
MonoBehaviour:
  m_ObjectHideFlags: 0
  m_CorrespondingSourceObject: {fileID: 0}
  m_PrefabInstance: {fileID: 0}
  m_PrefabAsset: {fileID: 0}
  m_GameObject: {fileID: 4445811533155252764}
  m_Enabled: 1
  m_EditorHideFlags: 0
  m_Script: {fileID: 11500000, guid: f362615ade9e7af4fb5c10899bd48e3a, type: 3}
  m_Name: 
  m_EditorClassIdentifier: 
